<?xml version="1.0" encoding="UTF-8" standalone="no"?>
<svg
   xmlns:dc="http://purl.org/dc/elements/1.1/"
   xmlns:cc="http://creativecommons.org/ns#"
   xmlns:rdf="http://www.w3.org/1999/02/22-rdf-syntax-ns#"
   xmlns:svg="http://www.w3.org/2000/svg"
   xmlns="http://www.w3.org/2000/svg"
   xmlns:sodipodi="http://sodipodi.sourceforge.net/DTD/sodipodi-0.dtd"
   xmlns:inkscape="http://www.inkscape.org/namespaces/inkscape"
   id="svg14"
   version="1.1"
   width="64"
   height="24"
   sodipodi:docname="icon-tipeee-black.svg"
   inkscape:version="0.92.3 (2405546, 2018-03-11)">
  <sodipodi:namedview
     pagecolor="#ffffff"
     bordercolor="#666666"
     borderopacity="1"
     objecttolerance="10"
     gridtolerance="10"
     guidetolerance="10"
     inkscape:pageopacity="0"
     inkscape:pageshadow="2"
     inkscape:window-width="2560"
     inkscape:window-height="1376"
     id="namedview6"
     showgrid="false"
     inkscape:zoom="11.953638"
     inkscape:cx="45.324852"
     inkscape:cy="4.93401"
     inkscape:window-x="0"
     inkscape:window-y="27"
     inkscape:window-maximized="1"
     inkscape:current-layer="svg14" />
  <metadata
     id="metadata20">
    <rdf:RDF>
      <cc:Work
         rdf:about="">
        <dc:format>image/svg+xml</dc:format>
        <dc:type
           rdf:resource="http://purl.org/dc/dcmitype/StillImage" />
        <dc:title></dc:title>
      </cc:Work>
    </rdf:RDF>
  </metadata>
  <defs
     id="defs18" />
  <path
     d="m 11.211902,9.9465446 c -0.06294,-0.024208 -0.114565,0.00476 -0.168149,0.020795 -0.21747,0.064926 -0.43452,0.1311934 -0.652839,0.1932384 -0.179166,0.05088 -0.331258,-0.04683 -0.360752,-0.2304081 -0.009,-0.055719 -0.0089,-0.1132077 -0.0089,-0.1698552 -5e-4,-0.8868745 -4.28e-4,-1.7737489 -1.43e-4,-2.6606233 0,-0.051115 7.94e-4,-0.1023417 0.0056,-0.1532269 0.02016,-0.2310428 0.103056,-0.336226 0.325218,-0.4031045 0.847434,-0.2552115 1.69529,-0.5087164 2.543002,-0.7630706 0.766269,-0.2299078 1.532467,-0.4601013 2.298744,-0.6898741 0.04342,-0.013017 0.08698,-0.028494 0.131614,-0.034289 0.159696,-0.020875 0.293588,0.081015 0.313844,0.2405674 0.0079,0.061592 0.004,0.124796 0.004,0.1873408 1.35e-4,3.1210817 0,6.2421635 4.21e-4,9.3632445 0,0.245687 -0.02095,0.209724 0.205961,0.211502 0.238726,0.0016 0.477587,-0.0016 0.716305,7.94e-4 0.212145,0.0024 0.325003,0.1152 0.32536,0.32905 0.0016,0.989209 0.0016,1.978425 0,2.96757 -2.86e-4,0.227066 -0.110445,0.323931 -0.359823,0.324002 -1.796425,2.86e-4 -3.592914,1.43e-4 -5.389403,1.43e-4 -0.278594,0 -0.557117,0.0016 -0.835711,-4.92e-4 -0.224646,-0.0016 -0.3333136,-0.109168 -0.3335993,-0.335662 -0.00159,-0.983534 -0.00159,-1.967059 7.14e-5,-2.950592 3.572e-4,-0.220669 0.1159139,-0.332527 0.3392179,-0.334234 0.23879,-0.0016 0.477587,3.5e-4 0.716305,-7.14e-4 0.217264,-7.94e-4 0.194802,0.02278 0.195302,-0.187555 7.94e-4,-0.409359 2.86e-4,-0.818647 2.86e-4,-1.227934 0,-1.171152 1.43e-4,-2.342232 -3.57e-4,-3.513384 -2.86e-4,-0.06159 0.0082,-0.124447 -0.01143,-0.183499 z M 22.779011,5.4454368 c 0.262251,-0.096445 0.511915,-0.1879123 0.771317,-0.247822 1.447539,-0.3344481 2.810866,-0.1220259 4.075898,0.6549745 1.25708,0.7721031 2.101808,1.8885995 2.637883,3.2493621 0.283071,0.7183685 0.440632,1.4655966 0.490168,2.2361276 0.09537,1.481868 -0.18819,2.883213 -0.910329,4.184638 -0.633512,1.141729 -1.513918,2.036778 -2.694952,2.619191 -0.877135,0.432528 -1.805442,0.599541 -2.776823,0.526694 -0.489024,-0.03667 -0.964127,-0.147401 -1.424014,-0.320661 -0.05135,-0.01929 -0.09979,-0.05612 -0.159481,-0.04453 -0.03596,0.0258 -0.02373,0.06294 -0.02373,0.09424 -7.94e-4,0.613971 -7.94e-4,1.2278 -4.21e-4,1.841691 1.43e-4,0.138877 0.0016,0.140369 0.139369,0.140933 0.250092,0.0016 0.500255,-5.64e-4 0.750347,6.42e-4 0.234527,7.94e-4 0.343052,0.102906 0.360609,0.336441 0.0032,0.03961 7.94e-4,0.07953 7.94e-4,0.119327 0,0.90386 -7.2e-5,1.807648 2.14e-4,2.711366 0,0.07967 7.07e-4,0.158981 -0.02207,0.23659 -0.03873,0.132257 -0.134178,0.210938 -0.269848,0.219106 -0.03397,0.0024 -0.06818,5e-4 -0.10227,5e-4 -2.057677,0 -4.115417,7.1e-5 -6.173086,-1.43e-4 -0.05112,0 -0.103406,0.004 -0.153013,-0.0048 -0.11897,-0.02214 -0.2157,-0.135099 -0.231186,-0.2648 -0.0048,-0.03929 -0.0024,-0.07946 -0.0024,-0.119256 -1.43e-4,-0.949205 -2.14e-4,-1.898553 1.43e-4,-2.84775 7.2e-5,-0.0677 -0.0064,-0.136241 0.02421,-0.201056 0.06009,-0.125867 0.157775,-0.187055 0.297787,-0.186205 0.267149,0.0016 0.534298,7.93e-4 0.801447,1.42e-4 0.141075,-4.92e-4 0.141146,-0.0016 0.14363,-0.135955 5e-4,-0.02834 7.2e-5,-0.05683 7.2e-5,-0.08521 0,-3.757292 2.14e-4,-7.514585 -4.29e-4,-11.2718857 -7.1e-5,-0.2545685 0.03429,-0.2259312 -0.225931,-0.2274234 -0.227344,-0.00159 -0.454768,0.00159 -0.68212,-7.937e-4 -0.254925,-0.00317 -0.358402,-0.109517 -0.358616,-0.3677842 -7.86e-4,-0.9606424 -7.86e-4,-1.9212927 0,-2.8818637 2.14e-4,-0.2663711 0.107318,-0.3788009 0.368776,-0.3790152 1.654144,-0.00159 3.308208,-0.00159 4.962352,0 0.259617,3.571e-4 0.340282,0.087563 0.385476,0.4151214 z m 4.245618,6.4082482 c -0.0016,-0.58554 -0.08955,-1.114718 -0.277674,-1.619029 -0.166728,-0.4469578 -0.40154,-0.8512688 -0.75376,-1.1808911 -0.292024,-0.2732606 -0.63202,-0.4466637 -1.033418,-0.4664272 -0.371554,-0.018256 -0.701383,0.11393 -0.995614,0.3367975 -0.357402,0.2708476 -0.612971,0.6243449 -0.791993,1.0289416 -0.523353,1.1830262 -0.545958,2.3860852 -0.106533,3.5978912 0.160759,0.443258 0.407367,0.836275 0.760586,1.155658 0.614749,0.555903 1.398925,0.580143 2.045661,0.0635 0.293801,-0.23467 0.510137,-0.53167 0.681484,-0.862571 0.333599,-0.643886 0.468491,-1.333966 0.471261,-2.053906 z M 13.616607,0.18559208 c 0.299914,0.0375428 0.58789,0.11108055 0.858309,0.25329064 0.789787,0.41532777 1.247832,1.28862968 1.165175,2.17877418 -0.102905,1.1083926 -1.073501,2.0636378 -2.326025,1.9966243 -1.218203,-0.065164 -2.038342,-1.0562375 -2.094489,-2.0809169 -0.05937,-1.0829541 0.663078,-2.05362108 1.710498,-2.29745856 0.06953,-0.0161918 0.148893,0.004762 0.208945,-0.0503216 0.159125,0 0.31832,0 0.477587,0 z M 0.24412,5.2343559 c 0.0108739,-0.00238 0.0280182,-3.492e-4 0.0316693,-0.00635 0.0976509,-0.1671566 0.25250486,-0.1847136 0.42648741,-0.1795941 0.27838,0.00818 0.55703779,0.00397 0.83563209,0.00159 0.1200337,-7.937e-4 0.129344,-0.00476 0.1235895,-0.1266453 C 1.6410998,4.4917473 1.6518944,4.0598627 1.6459415,3.6281843 1.6419729,3.3667184 1.638798,3.1051096 1.6443541,2.8437945 1.6514975,2.493488 1.8197573,2.2901618 2.1540626,2.190098 3.1324048,1.8971454 4.1145172,1.6166382 5.0811284,1.2855237 c 0.080094,-0.027463 0.1640293,-0.046512 0.2476791,-0.060799 0.3133431,-0.053735 0.5368536,0.1120807 0.5742376,0.4279796 0.00992,0.084078 0.00397,0.170141 0.00397,0.2552829 1.349e-4,0.9948277 -7.15e-5,1.9896634 3.492e-4,2.9845626 7.14e-5,0.1559969 0.00159,0.1578463 0.1617593,0.1580527 0.682191,7.143e-4 1.3643184,2.143e-4 2.0465094,5e-4 0.051115,0 0.1027703,-0.00238 0.1532268,0.00397 0.1328999,0.017303 0.2258599,0.1136442 0.2419167,0.2472504 0.00397,0.033654 0.00238,0.068101 0.00238,0.1021989 1.429e-4,0.9720878 5.635e-4,1.9441756 -2.143e-4,2.9163348 -2.143e-4,0.2477505 -0.1047546,0.3509415 -0.3522194,0.354283 -0.03413,4.207e-4 -0.06826,7.15e-5 -0.1023418,7.15e-5 -0.648077,0 -1.296162,-5.715e-4 -1.9441755,2.778e-4 -0.2361623,2.857e-4 -0.2067392,-0.022542 -0.2068106,0.2110808 -7.779e-4,1.6201643 -5.636e-4,3.2403373 -7.15e-5,4.8605733 0,0.11343 -7.937e-4,0.226575 0.02397,0.339076 0.066513,0.300191 0.245044,0.470761 0.5475847,0.53252 0.2815072,0.05754 0.554482,0.0079 0.8265361,-0.05239 0.2607596,-0.05778 0.513193,-0.143988 0.7583877,-0.25045 0.020795,-0.0091 0.041194,-0.01937 0.062307,-0.02754 0.2390117,-0.0921 0.3755309,-0.0056 0.3856984,0.252156 0.00635,0.164593 0.00159,0.329757 0.00159,0.494572 0,0.767476 0,1.53488 0,2.302364 0,0.328122 -0.1357492,0.533584 -0.4418379,0.652411 -0.5082877,0.197294 -1.026743,0.362387 -1.5573501,0.490453 -0.6389096,0.154362 -1.2850738,0.23794 -1.9418262,0.192952 C 3.8064681,18.620805 3.1169512,18.377618 2.5718509,17.809421 2.154388,17.374409 1.91744,16.844937 1.7841195,16.265159 1.7075259,15.932195 1.6747375,15.594191 1.6754518,15.251282 c 0.00317,-1.677098 0.00159,-3.354053 0.00159,-5.031144 C 1.6768964,9.75968 1.6738644,9.299293 1.672277,8.838906 1.6715706,8.6761545 1.6706895,8.675583 1.5022075,8.6752338 c -0.272832,-5.001e-4 -0.54594965,-0.00635 -0.81857521,0.00238 -0.1654501,0.00476 -0.30396147,-0.027224 -0.39599284,-0.1772447 -0.007937,-0.012303 -0.0282563,-0.016589 -0.04294,-0.024605 0,-1.0803982 0,-2.1606536 0,-3.240909 z m 63.109755,4.5029572 c -0.05747,0.089976 -0.03667,0.1970082 -0.06556,0.2946509 -0.142425,0.481572 -0.390739,0.905852 -0.688874,1.303988 -0.517035,0.690367 -1.119981,1.30021 -1.776805,1.855692 -1.747318,1.477598 -3.640386,2.736733 -5.690531,3.755587 -1.253238,0.622781 -2.549328,1.13768 -3.901066,1.505536 -0.704082,0.191603 -1.419045,0.320804 -2.152836,0.283992 -0.804574,-0.04024 -1.540428,-0.269213 -2.1512,-0.822274 -0.165371,-0.149743 -0.30801,-0.318606 -0.435441,-0.500613 -0.07366,-0.105183 -0.05262,-0.120819 -0.196714,-0.04032 -0.575667,0.321733 -1.168953,0.60551 -1.788679,0.83322 -0.66357,0.243837 -1.344206,0.416677 -2.047652,0.491016 -0.727465,0.07683 -1.440928,0.02587 -2.121421,-0.26999 -0.519376,-0.22586 -0.933846,-0.579 -1.247975,-1.049126 -0.08486,-0.127003 -0.07429,-0.11293 -0.194945,-0.04453 -0.702661,0.398557 -1.429061,0.745157 -2.192346,1.012877 -0.610058,0.213994 -1.236681,0.352863 -1.882917,0.353077 -1.308242,4.2e-4 -2.293545,-0.556054 -2.897143,-1.739143 -0.01794,-0.03508 -0.03722,-0.06961 -0.05667,-0.104048 -0.0024,-0.0048 -0.009,-0.0071 -0.01611,-0.01183 -0.225225,0.102842 -0.451434,0.207454 -0.678786,0.309439 -0.19146,0.08585 -0.392517,0.11947 -0.598692,0.07564 -0.407724,-0.08656 -0.657173,-0.498621 -0.568055,-0.929942 0.05167,-0.250092 0.183571,-0.4299 0.428686,-0.531385 0.319749,-0.132265 0.632449,-0.281221 0.940958,-0.438925 0.07175,-0.03675 0.09644,-0.08059 0.09019,-0.159195 -0.01318,-0.16403 -0.02373,-0.32863 -0.02516,-0.49308 -0.0099,-1.115219 0.172634,-2.20507 0.444188,-3.282056 0.250663,-0.994193 0.588096,-1.9568271 1.070088,-2.8648779 0.547735,-1.0320689 1.250825,-1.9349367 2.195831,-2.636534 0.503525,-0.3738243 1.052681,-0.6482913 1.669423,-0.7777782 0.439425,-0.092182 0.878484,-0.1094534 1.314711,0.016986 0.527972,0.1529411 0.901939,0.4901593 1.143363,0.9771278 0.259403,0.5230747 0.339997,1.0776282 0.279873,1.6566996 -0.08237,0.793843 -0.371555,1.5196804 -0.735712,2.2179361 -0.684254,1.3121546 -1.523299,2.5165636 -2.543216,3.5916996 -0.860508,0.90713 -1.816388,1.699409 -2.866942,2.377346 -0.02865,0.01857 -0.05651,0.03842 -0.08592,0.05548 -0.04683,0.02738 -0.05612,0.05866 -0.03453,0.112429 0.248251,0.621218 0.657824,0.976493 1.375478,1.011957 0.525774,0.02603 1.027029,-0.09985 1.515061,-0.27596 0.771246,-0.278237 1.49729,-0.653061 2.208412,-1.05865 0.08997,-0.05135 0.111715,-0.109374 0.09935,-0.205104 -0.05207,-0.401613 -0.05318,-0.805931 -0.02611,-1.208393 0.05381,-0.800669 0.188476,-1.589329 0.3992,-2.363916 0.362664,-1.333189 0.880762,-2.6028408 1.591456,-3.7889144 0.515177,-0.8598722 1.155158,-1.6175456 1.938135,-2.2482085 0.599676,-0.482992 1.278534,-0.7939223 2.038834,-0.9295208 1.109607,-0.1979289 2.082401,0.5028191 2.382243,1.4548656 0.197437,0.6269721 0.172348,1.2544443 0.01572,1.8828371 -0.118827,0.476944 -0.326844,0.9198534 -0.541473,1.3584926 -0.638846,1.3056864 -1.475264,2.4775444 -2.430716,3.5680384 -1.001225,1.14265 -2.129809,2.142454 -3.375515,3.010851 -0.02334,0.01627 -0.04564,0.03421 -0.07001,0.04857 -0.05175,0.03048 -0.04913,0.06572 -0.02,0.11293 0.109096,0.177245 0.246115,0.326701 0.427202,0.431385 0.271554,0.15714 0.56557,0.222454 0.878842,0.232685 0.609923,0.02008 1.197804,-0.09452 1.779011,-0.261608 0.81367,-0.233885 1.561604,-0.6139 2.293696,-1.029577 0.07485,-0.04254 0.104326,-0.0924 0.08869,-0.178173 -0.04826,-0.263744 -0.0504,-0.532314 -0.05096,-0.798042 -7.06e-4,-0.334305 0.01722,-0.669468 0.05754,-1.002574 0.119256,-0.984454 0.339853,-1.94524 0.669682,-2.880301 0.409716,-1.1612691 0.913527,-2.2773449 1.615767,-3.2946348 0.584469,-0.8467203 1.286709,-1.5736848 2.183608,-2.0962595 0.434726,-0.2532906 0.891637,-0.4505052 1.390757,-0.5360043 0.598613,-0.1026275 1.157786,-0.017938 1.635301,0.3834918 0.3992,0.3355911 0.652705,0.7679758 0.780914,1.2721362 0.144765,0.5686975 0.110509,1.1380379 -0.0123,1.7047432 -0.161402,0.7452358 -0.465649,1.4345385 -0.835918,2.0969024 -0.571396,1.022195 -1.274843,1.948152 -2.059026,2.814636 -1.029227,1.13718 -2.155391,2.166614 -3.407351,3.055552 -0.0277,0.01968 -0.05778,0.03699 -0.07493,0.07974 0.172411,0.293945 0.432956,0.480079 0.757745,0.586397 0.303818,0.0995 0.617019,0.08877 0.928941,0.07715 0.68689,-0.02548 1.345134,-0.203183 1.998974,-0.395786 0.889859,-0.262101 1.741976,-0.621575 2.576187,-1.024108 1.693378,-0.817297 3.292509,-1.790171 4.796474,-2.918676 0.797541,-0.598407 1.54015,-1.257786 2.202014,-2.005578 0.264879,-0.299135 0.499835,-0.618519 0.678,-0.9775637 0.06882,-0.1385828 0.112081,-0.2837773 0.127788,-0.4387106 0.03604,-0.3546323 0.307661,-0.6315916 0.664785,-0.6732379 0.164022,-0.019128 0.327979,-0.016906 0.485826,0.051115 0.194444,0.083793 0.31924,0.2271377 0.386976,0.4244952 2.14e-4,0.1818007 2.14e-4,0.3637362 2.14e-4,0.5456718 z M 47.387778,14.745574 c 0.0758,-0.01262 0.10831,-0.05477 0.147329,-0.08536 0.757531,-0.592294 1.464025,-1.240871 2.131159,-1.932944 0.950904,-0.986375 1.783131,-2.061225 2.424604,-3.2755151 0.307018,-0.581135 0.538846,-1.1907645 0.569261,-1.8568986 0.01087,-0.237448 -0.0079,-0.4763089 -0.122875,-0.6953428 -0.09325,-0.1773955 -0.237376,-0.2638867 -0.437861,-0.272697 -0.253362,-0.011191 -0.480643,0.072546 -0.702026,0.1785306 -0.47815,0.2289791 -0.87458,0.5673402 -1.243999,0.9405296 -0.643743,0.6502121 -1.106194,1.4232359 -1.504393,2.2380489 -0.516035,1.0560154 -0.879843,2.1642014 -1.110885,3.3158834 -0.09488,0.473245 -0.153156,0.951046 -0.150314,1.445762 z m -7.363073,-0.05643 c 0.06016,-0.0056 0.08365,-0.03222 0.109945,-0.05231 0.66969,-0.510415 1.301496,-1.063342 1.892299,-1.664161 1.062484,-1.080605 1.958811,-2.283672 2.681656,-3.6154398 0.208589,-0.3842696 0.410145,-0.772238 0.544894,-1.1908359 0.103683,-0.3222328 0.163387,-0.6495771 0.12501,-0.9890732 -0.04746,-0.4198758 -0.308017,-0.6242021 -0.726543,-0.5714676 -0.02238,0.00317 -0.04429,0.0096 -0.06659,0.013811 -0.276888,0.051988 -0.531528,0.1615371 -0.772024,0.3046759 -0.67111,0.3994772 -1.198376,0.9532529 -1.654921,1.5759627 -0.370205,0.5048748 -0.678358,1.0491973 -0.942951,1.6167519 -0.511129,1.096534 -0.868039,2.242882 -1.084375,3.432297 -0.06794,0.37361 -0.100349,0.752483 -0.106397,1.139808 z m -6.994075,-0.39856 c 0.05389,0.0024 0.07556,-0.01714 0.09814,-0.03294 0.72356,-0.507939 1.383511,-1.088931 1.994212,-1.727483 0.822059,-0.859587 1.499845,-1.825206 2.088584,-2.8545048 0.327987,-0.5735312 0.600462,-1.1731439 0.741251,-1.8237133 0.05429,-0.2510841 0.07516,-0.5053034 0.02,-0.760864 C 37.8948,6.7294073 37.700839,6.5744025 37.33519,6.5971425 c -0.271911,0.016906 -0.518804,0.1229545 -0.75376,0.2502348 -0.751776,0.4071604 -1.325299,1.0108211 -1.811419,1.6988459 -0.34525,0.4886036 -0.601105,1.0295846 -0.822623,1.5848448 -0.378023,0.94757 -0.645886,1.926412 -0.809058,2.933106 -0.06548,0.403533 -0.09929,0.811042 -0.107739,1.226442 z"
     style="clip-rule:evenodd;fill:#191919;fill-opacity:1;fill-rule:evenodd;stroke-width:0.79371595"
     id="path10"
     inkscape:connector-curvature="0" />
</svg>
